{
  "collectCoverage": true,
  "collectCoverageFrom": ["**/*.js", "!**/coverage/**", "!eslint.config.js"],
  "coverageThreshold": {
    "global": {
      "branches": 90,
      "functions": 90,
      "lines": 90,
      "statements": 90
    }
  },
  "reporters": [
    "default",
    [
      "jest-junit",
      {
        "suiteNameTemplate": "{filename}",
        "classNameTemplate": "{classname}",
        "titleTemplate": "{title}"
      }
    ]
  ],
  "verbose": true,
  "testEnvironment": "node"
}
