// Jest Snapshot v1, https://goo.gl/fbAQLP

exports[`resetLogEntryDefaults should return log entry with original defaults after reset: after setting defaults 1`] = `
{
  "errorCode": 2,
  "exitOnError": false,
  "isResult": true,
  "level": "warn",
  "message": "something",
  "resultPrefix": "-",
}
`;

exports[`resetLogEntryDefaults should return log entry with original defaults after reset: default values 1`] = `
{
  "errorCode": 1,
  "exitOnError": true,
  "isResult": false,
  "level": "info",
  "message": "something",
  "resultPrefix": "⮡",
}
`;
