{
  "defaults": {
    "name": "$$CHANGELOG",
    "description": "$$CHANGELOG",
    "assets": {
      "links": [
        {
          "name": "npm",
          "url": "https://www.npmjs.com/package/ci-logger",
          "type": "package"
        }
      ]
    },
    "milestones": ["${CI_COMMIT_TAG}"]
  },
  "releases": {
    "3.0.3": {
      "milestones": [""]
    }
  }
}
